2019-06-17 12:11:34 INFO::running first sql query
2019-06-17 12:11:41 INFO::Will calc quantity_calc
2019-06-17 12:11:41 INFO::Will get crate_quantity_calc
2019-06-17 12:11:41 INFO::entering bpp
2019-06-17 12:11:41 INFO::bpp starting record 1304464303
2019-06-17 12:11:41 INFO::bpp finished record 1304464303
2019-06-17 12:11:41 INFO::exited bpp
2019-06-17 12:11:41 INFO::Finallyyy ended!!
