2019-06-16 16:30:17 INFO::running first sql query
2019-06-16 16:30:17 INFO::Will calc quantity_calc
2019-06-16 16:30:17 INFO::Will get crate_quantity_calc
2019-06-16 16:30:17 INFO::entering bpp
2019-06-16 16:30:17 INFO::bpp starting record 1304477021
2019-06-16 16:30:17 INFO::bpp finished record 1304477021
2019-06-16 16:30:17 INFO::exited bpp
2019-06-16 16:30:17 INFO::Finallyyy ended!!
