2019-06-17 17:18:52 INFO::running first sql query
2019-06-17 17:18:52 INFO::Will calc quantity_calc
2019-06-17 17:18:52 INFO::Will get crate_quantity_calc
2019-06-17 17:18:52 INFO::entering bpp
2019-06-17 17:18:52 INFO::bpp starting record 1304456295
2019-06-17 17:18:52 INFO::bpp finished record 1304456295
2019-06-17 17:18:52 INFO::exited bpp
2019-06-17 17:18:53 INFO::Finallyyy ended!!
