2019-06-24 10:59:00 INFO::running first sql query
2019-06-24 10:59:03 INFO::Will calc quantity_calc
2019-06-24 10:59:03 INFO::Will get crate_quantity_calc
2019-06-24 10:59:03 INFO::entering bpp
2019-06-24 10:59:03 INFO::bpp starting record 1304473644
2019-06-24 10:59:03 INFO::bpp finished record 1304473644
2019-06-24 10:59:03 INFO::bpp starting record 1304476713
2019-06-24 10:59:03 INFO::bpp finished record 1304476713
2019-06-24 10:59:03 INFO::bpp starting record 1304461478
2019-06-24 10:59:04 INFO::bpp finished record 1304461478
2019-06-24 10:59:04 INFO::bpp starting record 1304474711
2019-06-24 10:59:04 INFO::bpp finished record 1304474711
2019-06-24 10:59:04 INFO::bpp starting record 1304456080
2019-06-24 10:59:04 INFO::bpp finished record 1304456080
2019-06-24 10:59:04 INFO::bpp starting record 1304471424
2019-06-24 10:59:04 INFO::bpp finished record 1304471424
2019-06-24 10:59:04 INFO::bpp starting record 1304474300
2019-06-24 10:59:04 INFO::bpp finished record 1304474300
2019-06-24 10:59:04 INFO::bpp starting record 1304479940
2019-06-24 10:59:04 INFO::bpp finished record 1304479940
2019-06-24 10:59:04 INFO::exited bpp
2019-06-24 10:59:04 INFO::Finallyyy ended!!
