2019-06-20 18:39:03 INFO::running first sql query
2019-06-20 18:39:03 INFO::Will calc quantity_calc
2019-06-20 18:39:03 INFO::Will get crate_quantity_calc
2019-06-20 18:39:03 INFO::entering bpp
2019-06-20 18:39:03 INFO::bpp starting record 1304471943
2019-06-20 18:39:03 INFO::bpp finished record 1304471943
2019-06-20 18:39:03 INFO::exited bpp
2019-06-20 18:39:03 INFO::Finallyyy ended!!
