2019-06-18 18:51:06 INFO::running first sql query
2019-06-18 18:51:06 INFO::Will calc quantity_calc
2019-06-18 18:51:06 INFO::Will get crate_quantity_calc
2019-06-18 18:51:06 INFO::entering bpp
2019-06-18 18:51:06 INFO::bpp starting record 1304478428
2019-06-18 18:51:06 INFO::bpp finished record 1304478428
2019-06-18 18:51:06 INFO::exited bpp
2019-06-18 18:51:06 INFO::Finallyyy ended!!
