2019-06-20 18:10:37 INFO::running first sql query
2019-06-20 18:10:37 INFO::Will calc quantity_calc
2019-06-20 18:10:37 INFO::Will get crate_quantity_calc
2019-06-20 18:10:37 INFO::entering bpp
2019-06-20 18:10:37 INFO::bpp starting record 1304466387
2019-06-20 18:10:38 INFO::bpp finished record 1304466387
2019-06-20 18:10:38 INFO::exited bpp
2019-06-20 18:10:38 INFO::Finallyyy ended!!
