2019-06-23 19:24:30 INFO::running first sql query
2019-06-23 19:24:30 INFO::Will calc quantity_calc
2019-06-23 19:24:30 INFO::Will get crate_quantity_calc
2019-06-23 19:24:30 INFO::entering bpp
2019-06-23 19:24:30 INFO::bpp starting record 1304463894
2019-06-23 19:24:30 INFO::bpp finished record 1304463894
2019-06-23 19:24:30 INFO::exited bpp
2019-06-23 19:24:30 INFO::Finallyyy ended!!
