2019-06-19 14:34:08 INFO::running first sql query
2019-06-19 14:34:13 INFO::Will calc quantity_calc
2019-06-19 14:34:13 INFO::Will get crate_quantity_calc
2019-06-19 14:34:13 INFO::entering bpp
2019-06-19 14:34:13 INFO::bpp starting record 1304472595
2019-06-19 14:34:13 INFO::bpp finished record 1304472595
2019-06-19 14:34:13 INFO::exited bpp
2019-06-19 14:34:13 INFO::Finallyyy ended!!
