2019-06-19 15:06:47 INFO::running first sql query
2019-06-19 15:07:01 INFO::Will calc quantity_calc
2019-06-19 15:07:01 INFO::Will get crate_quantity_calc
2019-06-19 15:07:01 INFO::entering bpp
2019-06-19 15:07:01 INFO::bpp starting record 1304467312
2019-06-19 15:07:02 INFO::bpp finished record 1304467312
2019-06-19 15:07:02 INFO::exited bpp
2019-06-19 15:07:02 INFO::Finallyyy ended!!
