2019-06-18 20:57:46 INFO::running first sql query
2019-06-18 20:57:46 INFO::Will calc quantity_calc
2019-06-18 20:57:46 INFO::Will get crate_quantity_calc
2019-06-18 20:57:46 INFO::entering bpp
2019-06-18 20:57:46 INFO::bpp starting record 1304456385
2019-06-18 20:57:47 INFO::bpp finished record 1304456385
2019-06-18 20:57:47 INFO::exited bpp
2019-06-18 20:57:47 INFO::Finallyyy ended!!
