2019-06-16 11:46:52 INFO::running first sql query
2019-06-16 11:46:52 INFO::Will calc quantity_calc
2019-06-16 11:46:52 INFO::Will get crate_quantity_calc
2019-06-16 11:46:52 INFO::entering bpp
2019-06-16 11:46:52 INFO::bpp starting record 1304473021
2019-06-16 11:46:52 INFO::bpp finished record 1304473021
2019-06-16 11:46:52 INFO::exited bpp
2019-06-16 11:46:52 INFO::Finallyyy ended!!
