2019-06-16 15:27:11 INFO::running first sql query
2019-06-16 15:27:11 INFO::Will calc quantity_calc
2019-06-16 15:27:11 INFO::Will get crate_quantity_calc
2019-06-16 15:27:11 INFO::entering bpp
2019-06-16 15:27:11 INFO::bpp starting record 1304470483
2019-06-16 15:27:12 INFO::bpp finished record 1304470483
2019-06-16 15:27:12 INFO::exited bpp
2019-06-16 15:27:12 INFO::Finallyyy ended!!
