2019-06-23 19:20:15 INFO::running first sql query
2019-06-23 19:20:15 INFO::Will calc quantity_calc
2019-06-23 19:20:15 INFO::Will get crate_quantity_calc
2019-06-23 19:20:15 INFO::entering bpp
2019-06-23 19:20:15 INFO::bpp starting record 1304469835
2019-06-23 19:20:15 INFO::bpp finished record 1304469835
2019-06-23 19:20:15 INFO::exited bpp
2019-06-23 19:20:15 INFO::Finallyyy ended!!
