2019-06-19 14:55:19 INFO::running first sql query
2019-06-19 14:55:20 INFO::Will calc quantity_calc
2019-06-19 14:55:20 INFO::Will get crate_quantity_calc
2019-06-19 14:55:20 INFO::entering bpp
2019-06-19 14:55:20 INFO::bpp starting record 1304465409
2019-06-19 14:55:20 INFO::bpp finished record 1304465409
2019-06-19 14:55:20 INFO::exited bpp
2019-06-19 14:55:20 INFO::Finallyyy ended!!
