2019-06-23 18:22:34 INFO::running first sql query
2019-06-23 18:22:34 INFO::Will calc quantity_calc
2019-06-23 18:22:35 INFO::Will get crate_quantity_calc
2019-06-23 18:22:35 INFO::entering bpp
2019-06-23 18:22:35 INFO::bpp starting record 1304475260
2019-06-23 18:22:35 INFO::bpp finished record 1304475260
2019-06-23 18:22:35 INFO::exited bpp
2019-06-23 18:22:35 INFO::Finallyyy ended!!
