2019-06-16 18:00:06 INFO::running first sql query
2019-06-16 18:00:06 INFO::Will calc quantity_calc
2019-06-16 18:00:07 INFO::Will get crate_quantity_calc
2019-06-16 18:00:07 INFO::entering bpp
2019-06-16 18:00:07 INFO::bpp starting record 1304480063
2019-06-16 18:00:07 INFO::bpp finished record 1304480063
2019-06-16 18:00:07 INFO::exited bpp
2019-06-16 18:00:07 INFO::Finallyyy ended!!
