2019-06-21 13:59:50 INFO::running first sql query
2019-06-21 13:59:58 INFO::Will calc quantity_calc
2019-06-21 13:59:58 INFO::Will get crate_quantity_calc
2019-06-21 13:59:58 INFO::entering bpp
2019-06-21 13:59:58 INFO::bpp starting record 1304464359
2019-06-21 13:59:59 INFO::bpp finished record 1304464359
2019-06-21 13:59:59 INFO::exited bpp
2019-06-21 13:59:59 INFO::Finallyyy ended!!
