2019-06-16 17:00:06 INFO::running first sql query
2019-06-16 17:00:06 INFO::Will calc quantity_calc
2019-06-16 17:00:06 INFO::Will get crate_quantity_calc
2019-06-16 17:00:06 INFO::entering bpp
2019-06-16 17:00:06 INFO::bpp starting record 1304474681
2019-06-16 17:00:07 INFO::bpp finished record 1304474681
2019-06-16 17:00:07 INFO::exited bpp
2019-06-16 17:00:07 INFO::Finallyyy ended!!
