2019-06-18 17:29:40 INFO::running first sql query
2019-06-18 17:29:40 INFO::Will calc quantity_calc
2019-06-18 17:29:40 INFO::Will get crate_quantity_calc
2019-06-18 17:29:40 INFO::entering bpp
2019-06-18 17:29:40 INFO::bpp starting record 1304467505
2019-06-18 17:29:40 INFO::bpp finished record 1304467505
2019-06-18 17:29:40 INFO::exited bpp
2019-06-18 17:29:40 INFO::Finallyyy ended!!
