2019-06-22 17:31:38 INFO::running first sql query
2019-06-22 17:31:41 INFO::Will calc quantity_calc
2019-06-22 17:31:41 INFO::Will get crate_quantity_calc
2019-06-22 17:31:41 INFO::entering bpp
2019-06-22 17:31:41 INFO::bpp starting record 1304477281
2019-06-22 17:31:41 INFO::bpp finished record 1304477281
2019-06-22 17:31:41 INFO::exited bpp
2019-06-22 17:31:41 INFO::Finallyyy ended!!
