2019-06-25 09:45:55 INFO::running first sql query
2019-06-25 09:45:56 INFO::Will calc quantity_calc
2019-06-25 09:45:56 INFO::Will get crate_quantity_calc
2019-06-25 09:45:56 INFO::entering bpp
2019-06-25 09:45:56 INFO::exited bpp
2019-06-25 09:45:56 INFO::Finallyyy ended!!
