2019-06-23 18:28:16 INFO::running first sql query
2019-06-23 18:28:16 INFO::Will calc quantity_calc
2019-06-23 18:28:16 INFO::Will get crate_quantity_calc
2019-06-23 18:28:17 INFO::entering bpp
2019-06-23 18:28:17 INFO::bpp starting record 1304470122
2019-06-23 18:28:17 INFO::bpp finished record 1304470122
2019-06-23 18:28:17 INFO::exited bpp
2019-06-23 18:28:17 INFO::Finallyyy ended!!
