2019-06-16 18:19:56 INFO::running first sql query
2019-06-16 18:19:56 INFO::Will calc quantity_calc
2019-06-16 18:19:56 INFO::Will get crate_quantity_calc
2019-06-16 18:19:56 INFO::entering bpp
2019-06-16 18:19:56 INFO::bpp starting record 1304471635
2019-06-16 18:19:56 INFO::bpp finished record 1304471635
2019-06-16 18:19:56 INFO::exited bpp
2019-06-16 18:19:56 INFO::Finallyyy ended!!
