2019-06-15 16:51:47 INFO::running first sql query
2019-06-15 16:51:47 INFO::Will calc quantity_calc
2019-06-15 16:51:47 INFO::Will get crate_quantity_calc
2019-06-15 16:51:47 INFO::entering bpp
2019-06-15 16:51:47 INFO::bpp starting record 1304469104
2019-06-15 16:51:48 INFO::bpp finished record 1304469104
2019-06-15 16:51:48 INFO::exited bpp
2019-06-15 16:51:48 INFO::Finallyyy ended!!
