2019-06-23 11:05:17 INFO::running first sql query
2019-06-23 11:05:17 INFO::Will calc quantity_calc
2019-06-23 11:05:17 INFO::Will get crate_quantity_calc
2019-06-23 11:05:17 INFO::entering bpp
2019-06-23 11:05:17 INFO::bpp starting record 1304471181
2019-06-23 11:05:17 INFO::bpp finished record 1304471181
2019-06-23 11:05:17 INFO::exited bpp
2019-06-23 11:05:17 INFO::Finallyyy ended!!
