2019-06-20 17:35:32 INFO::running first sql query
2019-06-20 17:35:32 INFO::Will calc quantity_calc
2019-06-20 17:35:32 INFO::Will get crate_quantity_calc
2019-06-20 17:35:32 INFO::entering bpp
2019-06-20 17:35:32 INFO::bpp starting record 1304474596
2019-06-20 17:35:32 INFO::bpp finished record 1304474596
2019-06-20 17:35:32 INFO::exited bpp
2019-06-20 17:35:32 INFO::Finallyyy ended!!
