2019-06-24 14:52:42 INFO::running first sql query
2019-06-24 14:53:08 INFO::Will calc quantity_calc
2019-06-24 14:53:08 INFO::Will get crate_quantity_calc
2019-06-24 14:53:08 INFO::entering bpp
2019-06-24 14:53:08 INFO::bpp starting record 1304464210
2019-06-24 14:53:08 INFO::bpp finished record 1304464210
2019-06-24 14:53:08 INFO::exited bpp
2019-06-24 14:53:08 INFO::Finallyyy ended!!
