2019-06-24 14:17:12 INFO::running first sql query
2019-06-24 14:17:12 INFO::Will calc quantity_calc
2019-06-24 14:17:12 INFO::Will get crate_quantity_calc
2019-06-24 14:17:13 INFO::entering bpp
2019-06-24 14:17:13 INFO::bpp starting record 1304460881
2019-06-24 14:17:13 INFO::bpp finished record 1304460881
2019-06-24 14:17:13 INFO::exited bpp
2019-06-24 14:17:13 INFO::Finallyyy ended!!
