2019-06-22 10:30:47 INFO::running first sql query
2019-06-22 10:30:51 INFO::Will calc quantity_calc
2019-06-22 10:30:51 INFO::Will get crate_quantity_calc
2019-06-22 10:30:51 INFO::entering bpp
2019-06-22 10:30:51 INFO::bpp starting record 1304473644
2019-06-22 10:30:52 INFO::bpp finished record 1304473644
2019-06-22 10:30:52 INFO::bpp starting record 1304471424
2019-06-22 10:30:52 INFO::bpp finished record 1304471424
2019-06-22 10:30:52 INFO::bpp starting record 1304479940
2019-06-22 10:30:52 INFO::bpp finished record 1304479940
2019-06-22 10:30:52 INFO::exited bpp
2019-06-22 10:30:52 INFO::Finallyyy ended!!
