2019-06-25 10:14:10 INFO::running first sql query
2019-06-25 10:14:14 INFO::Will calc quantity_calc
2019-06-25 10:14:14 INFO::Will get crate_quantity_calc
2019-06-25 10:14:14 INFO::entering bpp
2019-06-25 10:14:14 INFO::exited bpp
2019-06-25 10:14:14 INFO::Finallyyy ended!!
