2019-06-19 11:03:44 INFO::running first sql query
2019-06-19 11:03:49 INFO::Will calc quantity_calc
2019-06-19 11:03:49 INFO::Will get crate_quantity_calc
2019-06-19 11:03:49 INFO::entering bpp
2019-06-19 11:03:49 INFO::bpp starting record 1304470644
2019-06-19 11:03:49 INFO::bpp finished record 1304470644
2019-06-19 11:03:49 INFO::exited bpp
2019-06-19 11:03:49 INFO::Finallyyy ended!!
