2019-06-22 17:55:48 INFO::running first sql query
2019-06-22 17:55:49 INFO::Will calc quantity_calc
2019-06-22 17:55:49 INFO::Will get crate_quantity_calc
2019-06-22 17:55:49 INFO::entering bpp
2019-06-22 17:55:49 INFO::bpp starting record 1304471837
2019-06-22 17:55:49 INFO::bpp finished record 1304471837
2019-06-22 17:55:49 INFO::exited bpp
2019-06-22 17:55:49 INFO::Finallyyy ended!!
