2019-06-19 10:06:40 INFO::running first sql query
2019-06-19 10:06:40 INFO::Will calc quantity_calc
2019-06-19 10:06:40 INFO::Will get crate_quantity_calc
2019-06-19 10:06:41 INFO::entering bpp
2019-06-19 10:06:41 INFO::bpp starting record 1304471999
2019-06-19 10:06:41 INFO::bpp finished record 1304471999
2019-06-19 10:06:41 INFO::bpp starting record 1304469215
2019-06-19 10:06:41 INFO::bpp finished record 1304469215
2019-06-19 10:06:41 INFO::bpp starting record 1304471752
2019-06-19 10:06:41 INFO::bpp finished record 1304471752
2019-06-19 10:06:41 INFO::bpp starting record 1304459660
2019-06-19 10:06:41 INFO::bpp finished record 1304459660
2019-06-19 10:06:41 INFO::bpp starting record 1304471763
2019-06-19 10:06:41 INFO::bpp finished record 1304471763
2019-06-19 10:06:41 INFO::bpp starting record 1304480236
2019-06-19 10:06:41 INFO::bpp finished record 1304480236
2019-06-19 10:06:41 INFO::bpp starting record 1304467266
2019-06-19 10:06:41 INFO::bpp finished record 1304467266
2019-06-19 10:06:41 INFO::bpp starting record 1304479008
2019-06-19 10:06:41 INFO::bpp finished record 1304479008
2019-06-19 10:06:41 INFO::bpp starting record 1304459428
2019-06-19 10:06:41 INFO::bpp finished record 1304459428
2019-06-19 10:06:41 INFO::bpp starting record 1304479239
2019-06-19 10:06:41 INFO::bpp finished record 1304479239
2019-06-19 10:06:41 INFO::bpp starting record 1304466176
2019-06-19 10:06:42 INFO::bpp finished record 1304466176
2019-06-19 10:06:42 INFO::bpp starting record 1304471524
2019-06-19 10:06:42 INFO::bpp finished record 1304471524
2019-06-19 10:06:42 INFO::bpp starting record 1304467264
2019-06-19 10:06:42 INFO::bpp finished record 1304467264
2019-06-19 10:06:42 INFO::bpp starting record 1304479485
2019-06-19 10:06:42 INFO::bpp finished record 1304479485
2019-06-19 10:06:42 INFO::bpp starting record 1304472859
2019-06-19 10:06:42 INFO::bpp finished record 1304472859
2019-06-19 10:06:42 INFO::bpp starting record 1304471526
2019-06-19 10:06:42 INFO::bpp finished record 1304471526
2019-06-19 10:06:42 INFO::bpp starting record 1304470439
2019-06-19 10:06:42 INFO::bpp finished record 1304470439
2019-06-19 10:06:42 INFO::bpp starting record 1304480230
2019-06-19 10:06:42 INFO::bpp finished record 1304480230
2019-06-19 10:06:42 INFO::bpp starting record 1304479498
2019-06-19 10:06:42 INFO::bpp finished record 1304479498
2019-06-19 10:06:42 INFO::bpp starting record 1304480235
2019-06-19 10:06:42 INFO::bpp finished record 1304480235
2019-06-19 10:06:42 INFO::bpp starting record 1304472855
2019-06-19 10:06:42 INFO::bpp finished record 1304472855
2019-06-19 10:06:42 INFO::bpp starting record 1304480226
2019-06-19 10:06:42 INFO::bpp finished record 1304480226
2019-06-19 10:06:42 INFO::bpp starting record 1304471768
2019-06-19 10:06:42 INFO::bpp finished record 1304471768
2019-06-19 10:06:42 INFO::bpp starting record 1304478394
2019-06-19 10:06:43 INFO::bpp finished record 1304478394
2019-06-19 10:06:43 INFO::bpp starting record 1304479251
2019-06-19 10:06:43 INFO::bpp finished record 1304479251
2019-06-19 10:06:43 INFO::bpp starting record 1304461723
2019-06-19 10:06:43 INFO::bpp finished record 1304461723
2019-06-19 10:06:43 INFO::bpp starting record 1304479011
2019-06-19 10:06:43 INFO::bpp finished record 1304479011
2019-06-19 10:06:43 INFO::bpp starting record 1304470434
2019-06-19 10:06:43 INFO::bpp finished record 1304470434
2019-06-19 10:06:43 INFO::exited bpp
2019-06-19 10:06:43 INFO::Finallyyy ended!!
