2019-06-15 16:47:08 INFO::running first sql query
2019-06-15 16:47:09 INFO::Will calc quantity_calc
2019-06-15 16:47:09 INFO::Will get crate_quantity_calc
2019-06-15 16:47:09 INFO::entering bpp
2019-06-15 16:47:09 INFO::bpp starting record 1304465489
2019-06-15 16:47:09 INFO::bpp finished record 1304465489
2019-06-15 16:47:09 INFO::exited bpp
2019-06-15 16:47:09 INFO::Finallyyy ended!!
