2019-06-21 13:34:42 INFO::running first sql query
2019-06-21 13:34:52 INFO::Will calc quantity_calc
2019-06-21 13:34:53 INFO::Will get crate_quantity_calc
2019-06-21 13:34:53 INFO::entering bpp
2019-06-21 13:34:53 INFO::bpp starting record 1304467787
2019-06-21 13:34:53 INFO::bpp finished record 1304467787
2019-06-21 13:34:53 INFO::exited bpp
2019-06-21 13:34:53 INFO::Finallyyy ended!!
