2019-06-24 12:28:44 INFO::running first sql query
2019-06-24 12:28:45 INFO::Will calc quantity_calc
2019-06-24 12:28:45 INFO::Will get crate_quantity_calc
2019-06-24 12:28:45 INFO::entering bpp
2019-06-24 12:28:45 INFO::bpp starting record 1304460881
2019-06-24 12:28:45 INFO::bpp finished record 1304460881
2019-06-24 12:28:45 INFO::exited bpp
2019-06-24 12:28:45 INFO::Finallyyy ended!!
