2019-06-21 11:49:19 INFO::running first sql query
2019-06-21 11:49:21 INFO::Will calc quantity_calc
2019-06-21 11:49:21 INFO::Will get crate_quantity_calc
2019-06-21 11:49:22 INFO::entering bpp
2019-06-21 11:49:22 INFO::bpp starting record 1304474304
2019-06-21 11:49:22 INFO::bpp finished record 1304474304
2019-06-21 11:49:22 INFO::exited bpp
2019-06-21 11:49:22 INFO::Finallyyy ended!!
