2019-06-22 13:49:02 INFO::running first sql query
2019-06-22 13:49:03 INFO::Will calc quantity_calc
2019-06-22 13:49:03 INFO::Will get crate_quantity_calc
2019-06-22 13:49:03 INFO::entering bpp
2019-06-22 13:49:03 INFO::bpp starting record 1304473635
2019-06-22 13:49:03 INFO::bpp finished record 1304473635
2019-06-22 13:49:03 INFO::exited bpp
2019-06-22 13:49:03 INFO::Finallyyy ended!!
