2019-06-24 18:18:34 INFO::running first sql query
2019-06-24 18:18:34 INFO::Will calc quantity_calc
2019-06-24 18:18:34 INFO::Will get crate_quantity_calc
2019-06-24 18:18:34 INFO::entering bpp
2019-06-24 18:18:34 INFO::bpp starting record 1304461744
2019-06-24 18:18:34 INFO::bpp finished record 1304461744
2019-06-24 18:18:34 INFO::exited bpp
2019-06-24 18:18:34 INFO::Finallyyy ended!!
