2019-06-22 18:01:30 INFO::running first sql query
2019-06-22 18:01:30 INFO::Will calc quantity_calc
2019-06-22 18:01:30 INFO::Will get crate_quantity_calc
2019-06-22 18:01:30 INFO::entering bpp
2019-06-22 18:01:30 INFO::bpp starting record 1304466409
2019-06-22 18:01:31 INFO::bpp finished record 1304466409
2019-06-22 18:01:31 INFO::exited bpp
2019-06-22 18:01:31 INFO::Finallyyy ended!!
