2019-06-23 21:19:58 INFO::running first sql query
2019-06-23 21:19:59 INFO::Will calc quantity_calc
2019-06-23 21:19:59 INFO::Will get crate_quantity_calc
2019-06-23 21:19:59 INFO::entering bpp
2019-06-23 21:19:59 INFO::bpp starting record 1304472011
2019-06-23 21:19:59 INFO::bpp finished record 1304472011
2019-06-23 21:19:59 INFO::exited bpp
2019-06-23 21:19:59 INFO::Finallyyy ended!!
