2019-06-18 20:02:33 INFO::running first sql query
2019-06-18 20:02:33 INFO::Will calc quantity_calc
2019-06-18 20:02:33 INFO::Will get crate_quantity_calc
2019-06-18 20:02:33 INFO::entering bpp
2019-06-18 20:02:33 INFO::bpp starting record 1304476256
2019-06-18 20:02:34 INFO::bpp finished record 1304476256
2019-06-18 20:02:34 INFO::exited bpp
2019-06-18 20:02:34 INFO::Finallyyy ended!!
