2019-06-21 19:38:25 INFO::running first sql query
2019-06-21 19:38:25 INFO::Will calc quantity_calc
2019-06-21 19:38:25 INFO::Will get crate_quantity_calc
2019-06-21 19:38:26 INFO::entering bpp
2019-06-21 19:38:26 INFO::bpp starting record 1304465500
2019-06-21 19:38:26 INFO::bpp finished record 1304465500
2019-06-21 19:38:26 INFO::exited bpp
2019-06-21 19:38:26 INFO::Finallyyy ended!!
